interactions:
- request:
    body: ''
    headers:
      accept:
      - '*/*'
      accept-encoding:
      - gzip, deflate
      connection:
      - keep-alive
      host:
      - michiganelections.io
      user-agent:
      - python-httpx/0.26.0
    method: GET
    uri: https://michiganelections.io/api/positions/?active_election=null&limit=1
  response:
    content: '{"count":49139,"next":"http://michiganelections.io/api/positions/?active_election=null&limit=1&offset=1","previous":null,"results":[{"url":"http://michiganelections.io/api/positions/65249/","id":65249,"name":"President
      of the United States","description":"The president of the United States (POTUS)
      is the head of state and head of government of the United States of America.
      The president directs the executive branch of the federal government and is
      the commander-in-chief of the United States Armed Forces.","description_edit_url":"https://github.com/citizenlabsgr/elections-api/edit/main/content/positions/President%20of%20the%20United%20States.md","reference_url":null,"section":"Democratic","seats":1,"term":"","candidates":[{"url":"http://michiganelections.io/api/candidates/113468/","id":113468,"name":"Dean
      Phillips","description":"","reference_url":null,"party":{"url":"http://michiganelections.io/api/parties/1/","id":1,"name":"Democratic","color":"#3333FF"}},{"url":"http://michiganelections.io/api/candidates/113467/","id":113467,"name":"Joseph
      R. Biden Jr.","description":"","reference_url":null,"party":{"url":"http://michiganelections.io/api/parties/1/","id":1,"name":"Democratic","color":"#3333FF"}},{"url":"http://michiganelections.io/api/candidates/113469/","id":113469,"name":"Marianne
      Williamson","description":"","reference_url":null,"party":{"url":"http://michiganelections.io/api/parties/1/","id":1,"name":"Democratic","color":"#3333FF"}}],"election":{"url":"http://michiganelections.io/api/elections/54/","id":54,"name":"Presidential
      Primary","date":"2024-02-27","date_humanized":"Tuesday, February 27th","active":true,"reference_url":null},"district":{"url":"http://michiganelections.io/api/districts/1427/","id":1427,"category":"State","name":"Michigan"}}]}'
    headers:
      Allow:
      - GET
      CF-Cache-Status:
      - DYNAMIC
      CF-RAY:
      - 84c2d5146d07e1f7-ORD
      Connection:
      - keep-alive
      Content-Encoding:
      - gzip
      Content-Type:
      - application/json
      Cross-Origin-Opener-Policy:
      - same-origin
      Date:
      - Sat, 27 Jan 2024 17:49:27 GMT
      Nel:
      - '{"report_to":"heroku-nel","max_age":3600,"success_fraction":0.005,"failure_fraction":0.05,"response_headers":["Via"]}'
      Referrer-Policy:
      - same-origin
      Report-To:
      - '{"group":"heroku-nel","max_age":3600,"endpoints":[{"url":"https://nel.heroku.com/reports?ts=1706377767&sid=67ff5de4-ad2b-4112-9289-cf96be89efed&s=iDoWTNkyGS6q%2FxloZJD%2FtlHf829lo5B%2BhP3vENmW0PI%3D"}]}'
      Reporting-Endpoints:
      - heroku-nel=https://nel.heroku.com/reports?ts=1706377767&sid=67ff5de4-ad2b-4112-9289-cf96be89efed&s=iDoWTNkyGS6q%2FxloZJD%2FtlHf829lo5B%2BhP3vENmW0PI%3D
      Server:
      - cloudflare
      Transfer-Encoding:
      - chunked
      Vary:
      - Accept, Cookie, Origin
      Via:
      - 1.1 vegur
      X-Content-Type-Options:
      - nosniff
      X-Frame-Options:
      - DENY
      alt-svc:
      - h3=":443"; ma=86400
    http_version: HTTP/1.1
    status_code: 200
version: 1
