interactions:
- request:
    body: ''
    headers:
      accept:
      - '*/*'
      accept-encoding:
      - gzip, deflate
      connection:
      - keep-alive
      host:
      - michiganelections.io
      user-agent:
      - python-httpx/0.26.0
    method: GET
    uri: https://michiganelections.io/api/proposals/?active_election=null&limit=1
  response:
    content: '{"count":8094,"next":"http://michiganelections.io/api/proposals/?active_election=null&limit=1&offset=1","previous":null,"results":[{"url":"http://michiganelections.io/api/proposals/8695/","id":8695,"name":"Cass
      County Transportation Authority Millage Proposal","description":"Shall the Cass
      County Transportation Authority, County of Cass, Michigan, be authorized to
      levy annually a new additional millage in an amount not to exceed .25 mill ($0.25
      on each $1,000 of taxable value) against all taxable property within the Cass
      County Transportation Authority limits (the jurisdictional limits of the County
      Cass) for a period of five (5) years, 2024 to 2028, inclusive, for the purpose
      of providing funds for all public transportation authority purposes permitted
      by law, including providing transportation services for seniors, disabled persons,
      and the general public and owning, managing, and maintaining facilities, property,
      and vehicles to provide such services? The estimate of the revenue the Cass
      County Transportation Authority will collect if the millage is approved and
      levied by the Cass County Transportation Authority in the first year (2024)
      is approximately $617,000.","reference_url":null,"election":{"url":"http://michiganelections.io/api/elections/54/","id":54,"name":"Presidential
      Primary","date":"2024-02-27","date_humanized":"Tuesday, February 27th","active":true,"reference_url":null},"district":{"url":"http://michiganelections.io/api/districts/728/","id":728,"category":"County","name":"Cass"}}]}'
    headers:
      Allow:
      - GET
      CF-Cache-Status:
      - DYNAMIC
      CF-RAY:
      - 851bc5d58f19105c-ORD
      Connection:
      - keep-alive
      Content-Encoding:
      - gzip
      Content-Type:
      - application/json
      Cross-Origin-Opener-Policy:
      - same-origin
      Date:
      - Wed, 07 Feb 2024 12:52:55 GMT
      Nel:
      - '{"report_to":"heroku-nel","max_age":3600,"success_fraction":0.005,"failure_fraction":0.05,"response_headers":["Via"]}'
      Referrer-Policy:
      - same-origin
      Report-To:
      - '{"group":"heroku-nel","max_age":3600,"endpoints":[{"url":"https://nel.heroku.com/reports?ts=1707310375&sid=67ff5de4-ad2b-4112-9289-cf96be89efed&s=0Szyl3SOUA37za%2BYtiwZwirCfobNCAeQA6zHw9XbO2k%3D"}]}'
      Reporting-Endpoints:
      - heroku-nel=https://nel.heroku.com/reports?ts=1707310375&sid=67ff5de4-ad2b-4112-9289-cf96be89efed&s=0Szyl3SOUA37za%2BYtiwZwirCfobNCAeQA6zHw9XbO2k%3D
      Server:
      - cloudflare
      Transfer-Encoding:
      - chunked
      Vary:
      - Accept, Cookie, Origin
      Via:
      - 1.1 vegur
      X-Content-Type-Options:
      - nosniff
      X-Frame-Options:
      - DENY
      alt-svc:
      - h3=":443"; ma=86400
    http_version: HTTP/1.1
    status_code: 200
version: 1
